<?xml version="1.0" encoding="utf-8"?>
<!-- Generator: Adobe Illustrator 24.3.0, SVG Export Plug-In . SVG Version: 6.00 Build 0)  -->
<svg version="1.1" id="Calque_1" xmlns="http://www.w3.org/2000/svg" xmlns:xlink="http://www.w3.org/1999/xlink" x="0px" y="0px"
	 viewBox="0 0 156 106.3" style="enable-background:new 0 0 156 106.3;" xml:space="preserve">
<style type="text/css">
	.st0{display:none;}
	.st1{display:inline;opacity:0.5;}
	.st2{fill:#1D1D1B;}
</style>
<g id="Calque_2_1_" class="st0">
	<g class="st1">
		
			<image style="overflow:visible;enable-background:new    ;" width="627" height="627" id="ybNciF" xlink:href="4BB43B07B4A24783.jpeg"  transform="matrix(0.2433 0 0 0.2433 -4.882812e-04 -23.1355)">
		</image>
	</g>
</g>
<g id="Calque_1_1_">
	<path class="st2" d="M122.2,37.7c-1.6,0-3.1,0.1-4.6,0.4l-3-10c0-0.2-0.1-0.3-0.1-0.5c0,0,0,0,0,0l-4-13.4h8.7
		c1.1,0,3.6,1.1,4.2,2.8c0.6,2-1.7,5.2-6.2,8.4c-1.3,1-1.7,2.8-0.7,4.2c0.6,0.8,1.5,1.3,2.4,1.3c0.6,0,1.2-0.2,1.7-0.6
		c9-6.4,9.6-11.8,8.5-15.1c-1.4-4.3-6.2-7-9.9-7H99.6c-1.7,0-3,1.3-3,3s1.3,3,3,3h4.5l3.4,11.5H62.2l-3.5-11.5h9.2c1.7,0,3-1.3,3-3
		s-1.3-3-3-3H45.4c-1.7,0-3,1.3-3,3s1.3,3,3,3h7l4.4,14.3L46.5,42c-4.5-2.7-9.7-4.3-15.3-4.3c-16.3,0-29.5,13.2-29.5,29.5
		c0,16.3,13.2,29.5,29.5,29.5C46.4,96.7,59,85,60.5,70.2h2.3c1.2,3.5,4.6,6.1,8.6,6.1c5,0,9.1-4.1,9.1-9.1c0-1.3-0.3-2.6-0.8-3.7
		l30.5-29.2l1.6,5.3c-11.1,4.2-19.1,15-19.1,27.6c0,16.3,13.2,29.5,29.5,29.5s29.5-13.2,29.5-29.5C151.7,50.9,138.4,37.7,122.2,37.7
		z M58.9,35.5l7.4,24.1c-1.6,1.1-2.8,2.7-3.4,4.5h-2.3c-0.7-7.3-4.2-13.8-9.2-18.5L58.9,35.5z M37.2,64.2l10.4-13.7
		c3.7,3.6,6.1,8.4,6.8,13.7H37.2z M31.2,90.7c-13,0-23.5-10.5-23.5-23.5s10.5-23.5,23.5-23.5c4.3,0,8.2,1.1,11.7,3.1L32.4,60.6
		c-0.4-0.1-0.8-0.1-1.2-0.1c-3.7,0-6.7,3-6.7,6.7s3,6.7,6.7,6.7c2.6,0,4.9-1.5,6-3.7h17.3C53,81.7,43.1,90.7,31.2,90.7z M75.5,59.1
		c-1-0.5-2.1-0.9-3.3-1l-7.8-26.5h39.8L75.5,59.1z M122.2,90.7c-13,0-23.5-10.5-23.5-23.5c0-9.9,6.1-18.3,14.8-21.8l6.8,22.7
		c0.4,1.3,1.6,2.1,2.9,2.1c0.3,0,0.6,0,0.9-0.1c1.6-0.5,2.5-2.1,2-3.7l-6.7-22.5c0.9-0.1,1.9-0.2,2.9-0.2c13,0,23.5,10.5,23.5,23.5
		S135.1,90.7,122.2,90.7z"/>
</g>
<g>
	<path class="st2" d="M30,40.5h2.2c0.5,0,0.8-0.4,0.8-0.8v-2.2c0-0.5-0.4-0.8-0.8-0.8H30c-0.5,0-0.8,0.4-0.8,0.8v2.2
		C29.1,40.1,29.5,40.5,30,40.5z"/>
	<path class="st2" d="M25.3,41.1l2.1-0.4c0.5-0.1,0.8-0.5,0.7-1l-0.4-2.1c-0.1-0.5-0.5-0.8-1-0.7l-2.1,0.4c-0.5,0.1-0.8,0.5-0.7,1
		l0.4,2.1C24.4,40.8,24.8,41.1,25.3,41.1z"/>
	<path class="st2" d="M20.8,42.5l2-0.7c0.4-0.2,0.7-0.6,0.5-1.1l-0.7-2c-0.2-0.4-0.6-0.7-1.1-0.5l-2,0.7c-0.4,0.2-0.7,0.6-0.5,1.1
		l0.7,2C19.9,42.4,20.4,42.6,20.8,42.5z"/>
	<path class="st2" d="M15.5,44.3c0.2,0.4,0.7,0.5,1.1,0.3l1.9-1.1c0.4-0.2,0.5-0.7,0.3-1.1l-1.1-1.9c-0.2-0.4-0.7-0.5-1.1-0.3
		l-1.9,1.1c-0.4,0.2-0.5,0.7-0.3,1.1L15.5,44.3z"/>
	<path class="st2" d="M11.7,47.4c0.3,0.4,0.8,0.4,1.2,0.1l1.7-1.4c0.4-0.3,0.4-0.8,0.1-1.2l-1.4-1.7c-0.3-0.4-0.8-0.4-1.2-0.1
		l-1.7,1.4c-0.4,0.3-0.4,0.8-0.1,1.2L11.7,47.4z"/>
	<path class="st2" d="M8.6,51c0.4,0.3,0.9,0.2,1.2-0.1l1.4-1.7c0.3-0.4,0.2-0.9-0.1-1.2l-1.7-1.4c-0.4-0.3-0.9-0.2-1.2,0.1l-1.4,1.7
		c-0.3,0.4-0.2,0.9,0.1,1.2L8.6,51z"/>
	<path class="st2" d="M4.2,54.1l1.9,1.1c0.4,0.2,0.9,0.1,1.1-0.3L8.3,53c0.2-0.4,0.1-0.9-0.3-1.1l-1.9-1.1c-0.4-0.2-0.9-0.1-1.1,0.3
		L3.9,53C3.7,53.4,3.8,53.9,4.2,54.1z"/>
	<path class="st2" d="M2.3,59l2,0.7c0.4,0.2,0.9-0.1,1.1-0.5l0.7-2c0.2-0.4-0.1-0.9-0.5-1.1l-2-0.7c-0.4-0.2-0.9,0.1-1.1,0.5l-0.7,2
		C1.6,58.3,1.9,58.8,2.3,59z"/>
	<path class="st2" d="M1.3,64.1l2.1,0.4c0.5,0.1,0.9-0.2,1-0.7l0.4-2.1c0.1-0.5-0.2-0.9-0.7-1l-2.1-0.4C1.5,60.3,1,60.6,1,61
		l-0.4,2.1C0.5,63.6,0.8,64,1.3,64.1z"/>
	<path class="st2" d="M3.3,69.3c0.5,0,0.8-0.4,0.8-0.8v-2.2c0-0.5-0.4-0.8-0.8-0.8H1.1c-0.5,0-0.8,0.4-0.8,0.8v2.2
		c0,0.5,0.4,0.8,0.8,0.8H3.3z"/>
	<path class="st2" d="M4.1,74.1c0.5-0.1,0.8-0.5,0.7-1L4.4,71c-0.1-0.5-0.5-0.8-1-0.7l-2.1,0.4c-0.5,0.1-0.8,0.5-0.7,1L1,73.8
		c0.1,0.5,0.5,0.8,1,0.7L4.1,74.1z"/>
	<path class="st2" d="M6.1,77.6l-0.7-2c-0.2-0.4-0.6-0.7-1.1-0.5l-2,0.7c-0.4,0.2-0.7,0.6-0.5,1.1l0.7,2c0.2,0.4,0.6,0.7,1.1,0.5
		l2-0.7C6.1,78.5,6.3,78.1,6.1,77.6z"/>
	<path class="st2" d="M8.3,81.8l-1.1-1.9c-0.2-0.4-0.7-0.5-1.1-0.3l-1.9,1.1c-0.4,0.2-0.5,0.7-0.3,1.1L5,83.7
		c0.2,0.4,0.7,0.5,1.1,0.3L8,82.9C8.4,82.7,8.5,82.2,8.3,81.8z"/>
	<path class="st2" d="M11.1,85.5l-1.4-1.7c-0.3-0.4-0.8-0.4-1.2-0.1l-1.7,1.4c-0.4,0.3-0.4,0.8-0.1,1.2L8.2,88
		c0.3,0.4,0.8,0.4,1.2,0.1l1.7-1.4C11.4,86.4,11.4,85.9,11.1,85.5z"/>
	<path class="st2" d="M14.6,88.7l-1.7-1.4c-0.4-0.3-0.9-0.2-1.2,0.1l-1.4,1.7c-0.3,0.4-0.2,0.9,0.1,1.2l1.7,1.4
		c0.4,0.3,0.9,0.2,1.2-0.1l1.4-1.7C15,89.5,15,89,14.6,88.7z"/>
	<path class="st2" d="M18.6,91.3l-1.9-1.1c-0.4-0.2-0.9-0.1-1.1,0.3l-1.1,1.9c-0.2,0.4-0.1,0.9,0.3,1.1l1.9,1.1
		c0.4,0.2,0.9,0.1,1.1-0.3l1.1-1.9C19.1,92,19,91.5,18.6,91.3z"/>
	<path class="st2" d="M22.9,93.1l-2-0.7c-0.4-0.2-0.9,0.1-1.1,0.5l-0.7,2c-0.2,0.4,0.1,0.9,0.5,1.1l2,0.7c0.4,0.2,0.9-0.1,1.1-0.5
		l0.7-2C23.5,93.7,23.3,93.2,22.9,93.1z"/>
	<path class="st2" d="M27.5,94.1l-2.1-0.4c-0.5-0.1-0.9,0.2-1,0.7L24,96.5c-0.1,0.5,0.2,0.9,0.7,1l2.1,0.4c0.5,0.1,0.9-0.2,1-0.7
		l0.4-2.1C28.2,94.6,27.9,94.2,27.5,94.1z"/>
	<path class="st2" d="M32.2,94.3H30c-0.5,0-0.8,0.4-0.8,0.8v2.2c0,0.5,0.4,0.8,0.8,0.8h2.2c0.5,0,0.8-0.4,0.8-0.8v-2.2
		C33,94.7,32.6,94.3,32.2,94.3z"/>
	<path class="st2" d="M36.8,93.7l-2.1,0.4c-0.5,0.1-0.8,0.5-0.7,1l0.4,2.1c0.1,0.5,0.5,0.8,1,0.7l2.1-0.4c0.5-0.1,0.8-0.5,0.7-1
		l-0.4-2.1C37.7,93.9,37.3,93.6,36.8,93.7z"/>
	<path class="st2" d="M42.4,92.8c-0.2-0.4-0.6-0.7-1.1-0.5l-2,0.7c-0.4,0.2-0.7,0.6-0.5,1.1l0.7,2c0.2,0.4,0.6,0.7,1.1,0.5l2-0.7
		c0.4-0.2,0.7-0.6,0.5-1.1L42.4,92.8z"/>
	<path class="st2" d="M46.6,90.5c-0.2-0.4-0.7-0.5-1.1-0.3l-1.9,1.1c-0.4,0.2-0.5,0.7-0.3,1.1l1.1,1.9c0.2,0.4,0.7,0.5,1.1,0.3
		l1.9-1.1c0.4-0.2,0.5-0.7,0.3-1.1L46.6,90.5z"/>
	<path class="st2" d="M50.4,87.4c-0.3-0.4-0.8-0.4-1.2-0.1l-1.7,1.4c-0.4,0.3-0.4,0.8-0.1,1.2l1.4,1.7c0.3,0.4,0.8,0.4,1.2,0.1
		l1.7-1.4c0.4-0.3,0.4-0.8,0.1-1.2L50.4,87.4z"/>
	<path class="st2" d="M53.6,83.8c-0.4-0.3-0.9-0.2-1.2,0.1L51,85.5c-0.3,0.4-0.2,0.9,0.1,1.2l1.7,1.4c0.4,0.3,0.9,0.2,1.2-0.1
		l1.4-1.7c0.3-0.4,0.2-0.9-0.1-1.2L53.6,83.8z"/>
	<path class="st2" d="M57.9,80.7l-1.9-1.1c-0.4-0.2-0.9-0.1-1.1,0.3l-1.1,1.9c-0.2,0.4-0.1,0.9,0.3,1.1L56,84
		c0.4,0.2,0.9,0.1,1.1-0.3l1.1-1.9C58.5,81.4,58.3,80.9,57.9,80.7z"/>
	<path class="st2" d="M59.8,75.8l-2-0.7c-0.4-0.2-0.9,0.1-1.1,0.5l-0.7,2c-0.2,0.4,0.1,0.9,0.5,1.1l2,0.7c0.4,0.2,0.9-0.1,1.1-0.5
		l0.7-2C60.5,76.4,60.3,76,59.8,75.8z"/>
	<path class="st2" d="M60.9,70.7l-2.1-0.4c-0.5-0.1-0.9,0.2-1,0.7l-0.4,2.1c-0.1,0.5,0.2,0.9,0.7,1l2.1,0.4c0.5,0.1,0.9-0.2,1-0.7
		l0.4-2.1C61.6,71.2,61.3,70.8,60.9,70.7z"/>
	<path class="st2" d="M61,65.5h-2.2c-0.5,0-0.8,0.4-0.8,0.8v2.2c0,0.5,0.4,0.8,0.8,0.8H61c0.5,0,0.8-0.4,0.8-0.8v-2.2
		C61.8,65.8,61.4,65.5,61,65.5z"/>
	<path class="st2" d="M58.1,60.7c-0.5,0.1-0.8,0.5-0.7,1l0.4,2.1c0.1,0.5,0.5,0.8,1,0.7l2.1-0.4c0.5-0.1,0.8-0.5,0.7-1L61.1,61
		c-0.1-0.5-0.5-0.8-1-0.7L58.1,60.7z"/>
	<path class="st2" d="M56,57.1l0.7,2c0.2,0.4,0.6,0.7,1.1,0.5l2-0.7c0.4-0.2,0.7-0.6,0.5-1.1l-0.7-2c-0.2-0.4-0.6-0.7-1.1-0.5
		l-2,0.7C56,56.2,55.8,56.7,56,57.1z"/>
	<path class="st2" d="M53.8,53l1.1,1.9c0.2,0.4,0.7,0.5,1.1,0.3l1.9-1.1c0.4-0.2,0.5-0.7,0.3-1.1l-1.1-1.9c-0.2-0.4-0.7-0.5-1.1-0.3
		l-1.9,1.1C53.7,52.1,53.6,52.6,53.8,53z"/>
	<path class="st2" d="M51,49.2l1.4,1.7c0.3,0.4,0.8,0.4,1.2,0.1l1.7-1.4c0.4-0.3,0.4-0.8,0.1-1.2l-1.4-1.7c-0.3-0.4-0.8-0.4-1.2-0.1
		l-1.7,1.4C50.7,48.4,50.7,48.9,51,49.2z"/>
	<path class="st2" d="M47.5,46.1l1.7,1.4c0.4,0.3,0.9,0.2,1.2-0.1l1.4-1.7c0.3-0.4,0.2-0.9-0.1-1.2L50,43.1
		c-0.4-0.3-0.9-0.2-1.2,0.1l-1.4,1.7C47.1,45.2,47.2,45.8,47.5,46.1z"/>
	<path class="st2" d="M43.6,43.5l1.9,1.1c0.4,0.2,0.9,0.1,1.1-0.3l1.1-1.9c0.2-0.4,0.1-0.9-0.3-1.1l-1.9-1.1
		c-0.4-0.2-0.9-0.1-1.1,0.3l-1.1,1.9C43,42.8,43.2,43.3,43.6,43.5z"/>
	<path class="st2" d="M39.2,41.7l2,0.7c0.4,0.2,0.9-0.1,1.1-0.5l0.7-2c0.2-0.4-0.1-0.9-0.5-1.1l-2-0.7c-0.4-0.2-0.9,0.1-1.1,0.5
		l-0.7,2C38.6,41.1,38.8,41.6,39.2,41.7z"/>
	<path class="st2" d="M34.6,40.7l2.1,0.4c0.5,0.1,0.9-0.2,1-0.7l0.4-2.1c0.1-0.5-0.2-0.9-0.7-1l-2.1-0.4c-0.5-0.1-0.9,0.2-1,0.7
		L34,39.7C33.9,40.2,34.2,40.6,34.6,40.7z"/>
</g>
<g>
	<path class="st2" d="M121.1,40.5h2.2c0.5,0,0.8-0.4,0.8-0.8v-2.2c0-0.5-0.4-0.8-0.8-0.8h-2.2c-0.5,0-0.8,0.4-0.8,0.8v2.2
		C120.2,40.1,120.6,40.5,121.1,40.5z"/>
	<path class="st2" d="M116.4,41.1l2.1-0.4c0.5-0.1,0.8-0.5,0.7-1l-0.4-2.1c-0.1-0.5-0.5-0.8-1-0.7l-2.1,0.4c-0.5,0.1-0.8,0.5-0.7,1
		l0.4,2.1C115.5,40.8,116,41.1,116.4,41.1z"/>
	<path class="st2" d="M111.9,42.5l2-0.7c0.4-0.2,0.7-0.6,0.5-1.1l-0.7-2c-0.2-0.4-0.6-0.7-1.1-0.5l-2,0.7c-0.4,0.2-0.7,0.6-0.5,1.1
		l0.7,2C111,42.4,111.5,42.6,111.9,42.5z"/>
	<path class="st2" d="M106.6,44.3c0.2,0.4,0.7,0.5,1.1,0.3l1.9-1.1c0.4-0.2,0.5-0.7,0.3-1.1l-1.1-1.9c-0.2-0.4-0.7-0.5-1.1-0.3
		l-1.9,1.1c-0.4,0.2-0.5,0.7-0.3,1.1L106.6,44.3z"/>
	<path class="st2" d="M102.9,47.4c0.3,0.4,0.8,0.4,1.2,0.1l1.7-1.4c0.4-0.3,0.4-0.8,0.1-1.2l-1.4-1.7c-0.3-0.4-0.8-0.4-1.2-0.1
		l-1.7,1.4c-0.4,0.3-0.4,0.8-0.1,1.2L102.9,47.4z"/>
	<path class="st2" d="M99.7,51c0.4,0.3,0.9,0.2,1.2-0.1l1.4-1.7c0.3-0.4,0.2-0.9-0.1-1.2l-1.7-1.4c-0.4-0.3-0.9-0.2-1.2,0.1
		l-1.4,1.7c-0.3,0.4-0.2,0.9,0.1,1.2L99.7,51z"/>
	<path class="st2" d="M95.3,54.1l1.9,1.1c0.4,0.2,0.9,0.1,1.1-0.3l1.1-1.9c0.2-0.4,0.1-0.9-0.3-1.1l-1.9-1.1
		c-0.4-0.2-0.9-0.1-1.1,0.3L95,53C94.8,53.4,94.9,53.9,95.3,54.1z"/>
	<path class="st2" d="M93.4,59l2,0.7c0.4,0.2,0.9-0.1,1.1-0.5l0.7-2c0.2-0.4-0.1-0.9-0.5-1.1l-2-0.7c-0.4-0.2-0.9,0.1-1.1,0.5
		l-0.7,2C92.8,58.3,93,58.8,93.4,59z"/>
	<path class="st2" d="M92.4,64.1l2.1,0.4c0.5,0.1,0.9-0.2,1-0.7l0.4-2.1c0.1-0.5-0.2-0.9-0.7-1l-2.1-0.4c-0.5-0.1-0.9,0.2-1,0.7
		l-0.4,2.1C91.6,63.6,91.9,64,92.4,64.1z"/>
	<path class="st2" d="M94.4,69.3c0.5,0,0.8-0.4,0.8-0.8v-2.2c0-0.5-0.4-0.8-0.8-0.8h-2.2c-0.5,0-0.8,0.4-0.8,0.8v2.2
		c0,0.5,0.4,0.8,0.8,0.8H94.4z"/>
	<path class="st2" d="M95.2,74.1c0.5-0.1,0.8-0.5,0.7-1L95.5,71c-0.1-0.5-0.5-0.8-1-0.7l-2.1,0.4c-0.5,0.1-0.8,0.5-0.7,1l0.4,2.1
		c0.1,0.5,0.5,0.8,1,0.7L95.2,74.1z"/>
	<path class="st2" d="M97.3,77.6l-0.7-2c-0.2-0.4-0.6-0.7-1.1-0.5l-2,0.7c-0.4,0.2-0.7,0.6-0.5,1.1l0.7,2c0.2,0.4,0.6,0.7,1.1,0.5
		l2-0.7C97.2,78.5,97.4,78.1,97.3,77.6z"/>
	<path class="st2" d="M99.4,81.8l-1.1-1.9c-0.2-0.4-0.7-0.5-1.1-0.3l-1.9,1.1c-0.4,0.2-0.5,0.7-0.3,1.1l1.1,1.9
		c0.2,0.4,0.7,0.5,1.1,0.3l1.9-1.1C99.5,82.7,99.6,82.2,99.4,81.8z"/>
	<path class="st2" d="M102.3,85.5l-1.4-1.7c-0.3-0.4-0.8-0.4-1.2-0.1l-1.7,1.4c-0.4,0.3-0.4,0.8-0.1,1.2l1.4,1.7
		c0.3,0.4,0.8,0.4,1.2,0.1l1.7-1.4C102.5,86.4,102.6,85.9,102.3,85.5z"/>
	<path class="st2" d="M105.7,88.7l-1.7-1.4c-0.4-0.3-0.9-0.2-1.2,0.1l-1.4,1.7c-0.3,0.4-0.2,0.9,0.1,1.2l1.7,1.4
		c0.4,0.3,0.9,0.2,1.2-0.1l1.4-1.7C106.1,89.5,106.1,89,105.7,88.7z"/>
	<path class="st2" d="M109.7,91.3l-1.9-1.1c-0.4-0.2-0.9-0.1-1.1,0.3l-1.1,1.9c-0.2,0.4-0.1,0.9,0.3,1.1l1.9,1.1
		c0.4,0.2,0.9,0.1,1.1-0.3l1.1-1.9C110.2,92,110.1,91.5,109.7,91.3z"/>
	<path class="st2" d="M114,93.1l-2-0.7c-0.4-0.2-0.9,0.1-1.1,0.5l-0.7,2c-0.2,0.4,0.1,0.9,0.5,1.1l2,0.7c0.4,0.2,0.9-0.1,1.1-0.5
		l0.7-2C114.7,93.7,114.4,93.2,114,93.1z"/>
	<path class="st2" d="M118.6,94.1l-2.1-0.4c-0.5-0.1-0.9,0.2-1,0.7l-0.4,2.1c-0.1,0.5,0.2,0.9,0.7,1l2.1,0.4c0.5,0.1,0.9-0.2,1-0.7
		l0.4-2.1C119.3,94.6,119,94.2,118.6,94.1z"/>
	<path class="st2" d="M123.3,94.3h-2.2c-0.5,0-0.8,0.4-0.8,0.8v2.2c0,0.5,0.4,0.8,0.8,0.8h2.2c0.5,0,0.8-0.4,0.8-0.8v-2.2
		C124.1,94.7,123.7,94.3,123.3,94.3z"/>
	<path class="st2" d="M127.9,93.7l-2.1,0.4c-0.5,0.1-0.8,0.5-0.7,1l0.4,2.1c0.1,0.5,0.5,0.8,1,0.7l2.1-0.4c0.5-0.1,0.8-0.5,0.7-1
		l-0.4-2.1C128.8,93.9,128.4,93.6,127.9,93.7z"/>
	<path class="st2" d="M133.5,92.8c-0.2-0.4-0.6-0.7-1.1-0.5l-2,0.7c-0.4,0.2-0.7,0.6-0.5,1.1l0.7,2c0.2,0.4,0.6,0.7,1.1,0.5l2-0.7
		c0.4-0.2,0.7-0.6,0.5-1.1L133.5,92.8z"/>
	<path class="st2" d="M137.7,90.5c-0.2-0.4-0.7-0.5-1.1-0.3l-1.9,1.1c-0.4,0.2-0.5,0.7-0.3,1.1l1.1,1.9c0.2,0.4,0.7,0.5,1.1,0.3
		l1.9-1.1c0.4-0.2,0.5-0.7,0.3-1.1L137.7,90.5z"/>
	<path class="st2" d="M141.5,87.4c-0.3-0.4-0.8-0.4-1.2-0.1l-1.7,1.4c-0.4,0.3-0.4,0.8-0.1,1.2l1.4,1.7c0.3,0.4,0.8,0.4,1.2,0.1
		l1.7-1.4c0.4-0.3,0.4-0.8,0.1-1.2L141.5,87.4z"/>
	<path class="st2" d="M144.7,83.8c-0.4-0.3-0.9-0.2-1.2,0.1l-1.4,1.7c-0.3,0.4-0.2,0.9,0.1,1.2l1.7,1.4c0.4,0.3,0.9,0.2,1.2-0.1
		l1.4-1.7c0.3-0.4,0.2-0.9-0.1-1.2L144.7,83.8z"/>
	<path class="st2" d="M149.1,80.7l-1.9-1.1c-0.4-0.2-0.9-0.1-1.1,0.3l-1.1,1.9c-0.2,0.4-0.1,0.9,0.3,1.1l1.9,1.1
		c0.4,0.2,0.9,0.1,1.1-0.3l1.1-1.9C149.6,81.4,149.5,80.9,149.1,80.7z"/>
	<path class="st2" d="M151,75.8l-2-0.7c-0.4-0.2-0.9,0.1-1.1,0.5l-0.7,2c-0.2,0.4,0.1,0.9,0.5,1.1l2,0.7c0.4,0.2,0.9-0.1,1.1-0.5
		l0.7-2C151.6,76.4,151.4,76,151,75.8z"/>
	<path class="st2" d="M152,70.7l-2.1-0.4c-0.5-0.1-0.9,0.2-1,0.7l-0.4,2.1c-0.1,0.5,0.2,0.9,0.7,1l2.1,0.4c0.5,0.1,0.9-0.2,1-0.7
		l0.4-2.1C152.7,71.2,152.4,70.8,152,70.7z"/>
	<path class="st2" d="M152.1,65.5h-2.2c-0.5,0-0.8,0.4-0.8,0.8v2.2c0,0.5,0.4,0.8,0.8,0.8h2.2c0.5,0,0.8-0.4,0.8-0.8v-2.2
		C152.9,65.8,152.6,65.5,152.1,65.5z"/>
	<path class="st2" d="M149.2,60.7c-0.5,0.1-0.8,0.5-0.7,1l0.4,2.1c0.1,0.5,0.5,0.8,1,0.7L152,64c0.5-0.1,0.8-0.5,0.7-1l-0.4-2.1
		c-0.1-0.5-0.5-0.8-1-0.7L149.2,60.7z"/>
	<path class="st2" d="M147.1,57.1l0.7,2c0.2,0.4,0.6,0.7,1.1,0.5l2-0.7c0.4-0.2,0.7-0.6,0.5-1.1l-0.7-2c-0.2-0.4-0.6-0.7-1.1-0.5
		l-2,0.7C147.2,56.2,146.9,56.7,147.1,57.1z"/>
	<path class="st2" d="M144.9,53l1.1,1.9c0.2,0.4,0.7,0.5,1.1,0.3l1.9-1.1c0.4-0.2,0.5-0.7,0.3-1.1l-1.1-1.9
		c-0.2-0.4-0.7-0.5-1.1-0.3l-1.9,1.1C144.9,52.1,144.7,52.6,144.9,53z"/>
	<path class="st2" d="M142.1,49.2l1.4,1.7c0.3,0.4,0.8,0.4,1.2,0.1l1.7-1.4c0.4-0.3,0.4-0.8,0.1-1.2l-1.4-1.7
		c-0.3-0.4-0.8-0.4-1.2-0.1l-1.7,1.4C141.8,48.4,141.8,48.9,142.1,49.2z"/>
	<path class="st2" d="M138.6,46.1l1.7,1.4c0.4,0.3,0.9,0.2,1.2-0.1l1.4-1.7c0.3-0.4,0.2-0.9-0.1-1.2l-1.7-1.4
		c-0.4-0.3-0.9-0.2-1.2,0.1l-1.4,1.7C138.2,45.2,138.3,45.8,138.6,46.1z"/>
	<path class="st2" d="M134.7,43.5l1.9,1.1c0.4,0.2,0.9,0.1,1.1-0.3l1.1-1.9c0.2-0.4,0.1-0.9-0.3-1.1l-1.9-1.1
		c-0.4-0.2-0.9-0.1-1.1,0.3l-1.1,1.9C134.2,42.8,134.3,43.3,134.7,43.5z"/>
	<path class="st2" d="M130.4,41.7l2,0.7c0.4,0.2,0.9-0.1,1.1-0.5l0.7-2c0.2-0.4-0.1-0.9-0.5-1.1l-2-0.7c-0.4-0.2-0.9,0.1-1.1,0.5
		l-0.7,2C129.7,41.1,129.9,41.6,130.4,41.7z"/>
	<path class="st2" d="M125.8,40.7l2.1,0.4c0.5,0.1,0.9-0.2,1-0.7l0.4-2.1c0.1-0.5-0.2-0.9-0.7-1l-2.1-0.4c-0.5-0.1-0.9,0.2-1,0.7
		l-0.4,2.1C125,40.2,125.3,40.6,125.8,40.7z"/>
</g>
</svg>
