<?xml version="1.0" encoding="utf-8"?>
<!-- Generator: Adobe Illustrator 16.0.0, SVG Export Plug-In . SVG Version: 6.00 Build 0)  -->
<!DOCTYPE svg PUBLIC "-//W3C//DTD SVG 1.1//EN" "http://www.w3.org/Graphics/SVG/1.1/DTD/svg11.dtd">
<svg version="1.1" id="Calque_1" xmlns="http://www.w3.org/2000/svg" xmlns:xlink="http://www.w3.org/1999/xlink" x="0px" y="0px"
	 width="110px" height="137.31px" viewBox="0 0 110 137.31" enable-background="new 0 0 110 137.31" xml:space="preserve">
<polygon points="110,49.604 23.257,0 17.25,0 17.25,137.31 23.257,137.31 23.257,97.547 "/>
<path d="M20.253,0"/>
</svg>
