<?xml version="1.0" encoding="utf-8"?>
<!-- Generator: Adobe Illustrator 22.0.0, SVG Export Plug-In . SVG Version: 6.00 Build 0)  -->
<svg version="1.1" xmlns="http://www.w3.org/2000/svg" xmlns:xlink="http://www.w3.org/1999/xlink" x="0px" y="0px"
	 viewBox="0 0 128 84.3" style="enable-background:new 0 0 128 84.3;" xml:space="preserve">
<style type="text/css">
	.st0{display:none;}
	.st1{display:inline;}
	.st2{fill:#155778;}
	.st3{fill:#D9AA15;}
	.st4{display:inline;fill:#155778;}
	.st5{fill:#B40918;}
	.st6{fill:#707173;}
</style>
<g id="BVTT" class="st0">
	<g class="st1">
		<g>
			<path class="st2" d="M13.3,71.8c-6.8-8.9-5.1-21.7,3.8-28.5c8.5-6.8,21.2-5.1,28,3c0-0.4-0.4-0.4-0.4-0.8
				c-7.6-9.8-21.7-11.5-31.4-4.2C3.6,48.9,1.9,62.9,9.1,72.7c7.6,9.8,21.7,11.5,31.4,4.2c0.4,0,0.4-0.4,0.8-0.4
				C32.5,82,20.1,80.3,13.3,71.8z"/>
		</g>
		<g>
			<g>
				<path class="st3" d="M45.6,48.1c-6.4-8.1-18.3-9.3-26.3-3c-5.1,4.2-8.1,10.6-7.2,16.6h1.3h0.4c0,0,0,0,0.4,0
					c0-5.1,2.1-9.8,6.4-13.2c7.2-5.9,18.3-4.7,24.2,2.5c5.9,7.2,4.7,17.4-2.1,23.8c0.4,0,0.4-0.4,0.8-0.4C51.1,68,52,56.1,45.6,48.1
					z"/>
			</g>
		</g>
	</g>
	<path class="st4" d="M100,59.9l3.4-1.3L88.1,15.4l4.2-0.8l-0.4-3.4l-8.1,1.3l2.1,5.9h-0.4l-35.7,8.1c0,0,0,0-0.4,0
		c-0.8-1.7-1.7-3.4-2.5-5.1H49c0.8,0,1.7-0.8,1.7-2.1c0-1.3-0.8-2.1-2.1-2.1l0,0h-9.8c-0.8,0-2.1,0.8-2.1,2.1c0,1.3,0.8,2.1,2.1,2.1
		h3.8c1.3,2.1,2.1,4.7,3.4,6.8c0,0-0.4,0-0.4,0.4L23.5,57c-1.3,1.3-0.8,3.4,0.4,4.7l0.4,0.4c0.8,0.8,2.1,1.3,3.4,1.3h0.4l31.8-3.8
		c1.3,0,3-0.8,3.8-2.1l0,0l0,0l0,0l24.6-29.3L100,59.9z M28.2,60.4c-0.4,0-1.3,0-1.3-0.4l-0.4-0.4l-1.3,1.3l22.5-28.9
		c5.1,9.8,10.2,20.4,12.3,24.2l0,0L28.2,60.4z M86.8,25.5L62.6,54.4c-1.7-3.4-5.1-10.2-11.9-24.2l35.7-7.6l0.8,2.1
		C87.2,24.7,87.2,25.1,86.8,25.5z"/>
	<g class="st1">
		<path class="st2" d="M124.2,56.5L124.2,56.5h-0.4c-0.4-2.1-0.8-4.7-1.7-6.8l0.4-0.4l0,0c0-0.4-0.4-1.3-0.8-2.1s-0.8-1.3-1.3-1.7
			l0,0l-0.4,0.4c-1.3-1.7-3-3.4-4.7-4.7l0.4-0.4l0,0c-0.4-0.4-0.8-0.8-1.7-1.3c-0.8-0.4-1.3-0.8-2.1-0.8l0,0l-0.4,0.4
			c-2.1-0.8-4.2-1.7-6.8-1.7V37l0,0c-0.4-0.4-1.3-0.4-2.1-0.4c-0.8,0-1.7,0-2.1,0.4l0,0v0.8c-2.1,0.4-4.7,0.8-6.4,1.7l-0.4-0.4l0,0
			c-0.4,0-1.3,0.4-2.1,0.8c-0.8,0.4-1.3,0.8-1.7,1.3l0,0l0.4,0.4c-1.7,1.3-3.4,3-4.7,4.7l-0.4-0.4l0,0c-0.4,0.4-0.8,0.8-1.3,1.7
			c-0.4,0.8-0.8,1.3-0.8,2.1l0,0l0.4,0.4c-0.8,2.1-1.7,4.2-1.7,6.4h-0.8l0,0c-0.4,0.4-0.4,1.3-0.4,2.1s0,1.7,0.4,2.1l0,0h0.8
			c0.4,2.1,0.8,4.7,1.7,6.4L83,67.6l0,0c0,0.4,0.4,1.3,0.8,2.1c0.4,0.8,0.8,1.3,1.3,1.7l0,0l0.4-0.4c1.3,1.7,3,3.4,4.7,4.7l-0.4,0.4
			l0,0c0.4,0.4,0.8,0.8,1.7,1.3c0.8,0.4,1.3,0.8,2.1,0.8l0,0l0.4-0.4c2.1,0.8,4.2,1.7,6.8,1.7v0.4l0,0c0.4,0.4,1.3,0.4,2.1,0.4
			c0.8,0,1.7,0,2.1-0.4l0,0v-0.4c2.1-0.4,4.7-0.8,6.8-1.7l0.4,0.4l0,0c0.4,0,1.3-0.4,2.1-0.8c0.8-0.4,1.3-0.8,1.7-1.3l0,0l-0.4-0.4
			c1.7-1.3,3.4-3,4.7-4.7l0.4,0.4l0,0c0.4-0.4,0.8-0.8,1.3-1.7c0.4-0.8,0.8-1.3,0.8-2.1l0,0l-0.4-0.4c0.8-2.1,1.7-4.2,1.7-6.8h0.4
			l0,0c0.4-0.4,0.4-1.3,0.4-2.1C124.6,57.8,124.2,57,124.2,56.5z M101.7,77.4C91.5,77.4,83,69.3,83,58.7S91.1,40,101.7,40
			s18.7,8.1,18.7,18.7S111.9,77.4,101.7,77.4z"/>
	</g>
</g>
<g id="Calque_2">
	<g>
		<path class="st5" d="M14.8,70.7c-7.1-9.5-5.2-22.9,4.3-30c9-6.8,21.8-5.4,29.1,3.1c-0.2-0.3-0.4-0.6-0.6-0.8
			c-7.9-10.3-22.7-12.2-32.9-4.3C4.4,46.5,2.4,61.3,10.3,71.6S33,83.8,43.3,75.9l0,0c0.3-0.2,0.5-0.4,0.8-0.6
			C34.7,81.8,21.8,79.8,14.8,70.7z"/>
	</g>
	<g>
		<path class="st5" d="M48.9,46c-6.8-8.4-19.2-9.8-27.6-3c-5.4,4.4-8.4,11-7.7,17.4h1.1c0.2,0,0.3,0,0.4,0.1c0.1,0,0.2,0.1,0.3,0.1
			c0.1-9.9,8.3-17.9,18.2-17.7c9.9,0.1,17.9,8.3,17.7,18.2c-0.1,5.1-2.2,9.9-6,13.3c0.2-0.2,0.5-0.4,0.7-0.5
			C54.4,66.8,55.7,54.4,48.9,46z"/>
	</g>
	<g>
		<path class="st6" d="M102.5,80.9c-4.2,0-8.3-1.2-11.9-3.6c-4.9-3.2-8.2-8.1-9.4-13.8C80,57.8,81.1,52,84.2,47.1
			c3.2-4.9,8.1-8.2,13.8-9.4c5.7-1.2,11.5-0.1,16.4,3.1c4.9,3.2,8.2,8.1,9.4,13.8c1.2,5.7,0.1,11.5-3.1,16.4
			c-3.2,4.9-8.1,8.2-13.8,9.4C105.4,80.8,103.9,80.9,102.5,80.9z M98.6,40.2c-5,1-9.4,4-12.2,8.3c-2.8,4.3-3.8,9.4-2.7,14.5
			s4,9.4,8.3,12.2c4.3,2.8,9.4,3.8,14.5,2.7c10.4-2.2,17.1-12.4,14.9-22.8c-1-5-4-9.4-8.3-12.2C108.7,40.2,103.6,39.2,98.6,40.2
			L98.6,40.2z"/>
	</g>
	<g>
		<path class="st6" d="M34.4,64.2c-2.8,0-5.1-2.3-5.1-5.1c0-2.8,2.3-5.1,5.1-5.1L77,49.6c-0.9,2.7-1.4,5.5-1.3,8.4
			c-0.1,0.1,0.8,9.8-10.2,9.4C63.6,67.4,34.4,64.2,34.4,64.2z"/>
	</g>
	<g>
		<path class="st6" d="M56.5,22.6c2.1-0.2,3.7-1.9,3.5-4c-0.2-1.9-1.7-3.5-3.7-3.5h-0.2L37,15c-2.1,0.1-3.7,1.8-3.6,3.9
			c0.1,2,1.7,3.6,3.6,3.6L56.5,22.6z"/>
	</g>
	<g>
		
			<rect x="49.6" y="20.9" transform="matrix(0.9564 -0.2919 0.2919 0.9564 -8.6131 16.8514)" class="st6" width="5.1" height="32.7"/>
	</g>
	<g>
		<circle class="st6" cx="99.1" cy="61.9" r="2.6"/>
	</g>
	<g>
		<path class="st6" d="M75.7,57.7h-5.1c0-13,9.3-24,22.2-26.2l0.8,5C83.2,38.3,75.7,47.2,75.7,57.7z"/>
	</g>
	<g>
		<path class="st6" d="M96.6,62.4l-9.8-51.6H76.5V5.7h10.7c1.8-0.3,3.8,0.7,4.5,3.2l0,0.2l10,52.4L96.6,62.4z"/>
	</g>
	<g>
	</g>
	<g>
	</g>
	<g>
	</g>
	<g>
	</g>
	<g>
	</g>
	<g>
	</g>
</g>
</svg>
