<?xml version="1.0" encoding="utf-8"?>
<!-- Generator: Adobe Illustrator 21.1.0, SVG Export Plug-In . SVG Version: 6.00 Build 0)  -->
<svg version="1.1" id="Calque_1" xmlns="http://www.w3.org/2000/svg" xmlns:xlink="http://www.w3.org/1999/xlink" x="0px" y="0px"
	 viewBox="0 0 310.7 310.7" style="enable-background:new 0 0 310.7 310.7;" xml:space="preserve">
<style type="text/css">
	.st0{fill:#FFFFFF;}
	.st1{fill:url(#SVGID_1_);}
	.st2{fill:#D2011F;}
	.st3{fill:#172983;}
	.st4{fill:url(#SVGID_2_);}
</style>
<circle class="st0" cx="155.4" cy="155.4" r="153.9"/>
<g>
	<path class="st0" d="M294,158.4c0,71.9-71.7,133.6-138,133.6c-75.8,0-136.7-59.8-136.7-133.6S80.8,24.8,156.6,24.8
		S294,85.5,294,158.4z"/>
	<g>
		
			<linearGradient id="SVGID_1_" gradientUnits="userSpaceOnUse" x1="236.1195" y1="261.9932" x2="64.0612" y2="46.1743" gradientTransform="matrix(1 0 0 -1 0 311.11)">
			<stop  offset="0" style="stop-color:#172983"/>
			<stop  offset="1" style="stop-color:#2699D1"/>
		</linearGradient>
		<path class="st1" d="M70.6,233.7C28.5,179,38.7,100.5,93.4,58.4C146.6,17.6,222.1,26.1,265,76.7c-1.1-1.6-2.3-3.2-3.5-4.7
			c-46-59.8-131.8-71-191.7-25c-59.8,46-71,131.8-25,191.7s131.8,71,191.7,25c1.6-1.2,3.1-2.4,4.6-3.7
			C186.6,298,111.5,286.8,70.6,233.7z"/>
		<path class="st2" d="M170.2,119.1c0,0,8.2-1,8.1-12h-37.5v61.3l0.2-0.1c0.1-0.2,0.2-0.4,0.3-0.5c1.3-2.3,2.4-4.2,3.3-5.7
			c0.9-1.5,1.5-2.6,2-3.4c0.5-0.7,0.8-1.2,0.9-1.4c1.4-1.8,3.5-3,6.2-3.5V142h20.6v-12h-20.6v-10.9L170.2,119.1z"/>
		<g>
			<path class="st2" d="M198.1,119.1V130h20.6v12h-20.6v13.3c0,0,0.5,7.1-4.5,9.4l-8.3,3.7v-61.3h37.5c0,11-8.1,12-8.1,12H198.1z"/>
		</g>
		<g>
			<path class="st3" d="M74.1,204.8c-3.5-8.5-7.1-17-10.7-25.5h7.9c0.9,0,1.7,0.1,2.6,0.4c0.8,0.2,1.6,0.6,2.4,1.1
				c0.7,0.5,1.4,1,1.9,1.7c0.6,0.6,1,1.4,1.3,2.1c1.7,4.1,3.4,8.1,5,12c1.7,4,3.4,8,5.1,12c0.5,1.1,0.9,2.2,1.3,3.3s0.7,2.5,1,4
				c0-0.2,0-0.5,0-0.8c0-0.4,0.1-0.8,0.3-1.4c0.1-0.6,0.4-1.3,0.7-2.1c0.3-0.8,0.7-1.9,1.2-3.1c1.8-4,3.5-8,5.1-12
				c1.7-4,3.3-8,5.1-12.1c0.7-1.6,1.8-2.9,3.3-3.8c1.5-0.9,3.1-1.4,4.9-1.4h7.8l-21.5,51.1H84.9C81.3,221.7,77.7,213.2,74.1,204.8z"
				/>
			<path class="st3" d="M173.6,200.7c0,1.3-0.3,2.5-0.8,3.5s-1.2,1.8-2,2.5c-0.8,0.6-1.7,1.1-2.7,1.5c-1,0.3-1.9,0.5-2.8,0.5h-30.4
				c0.2,1,0.6,2.1,1.2,3.3c0.6,1.2,1.5,2.4,2.6,3.5c1.1,1.1,2.4,2,3.9,2.7s3.2,1.1,5.1,1.1c1.2,0,2.3-0.2,3.5-0.5s2.3-0.7,3.3-1.3
				c0.7-0.4,1.4-0.7,2.2-0.9c0.7-0.2,1.5-0.3,2.4-0.3c1.3,0,2.4,0.2,3.4,0.7s1.9,1.1,2.8,1.9l2.9,3c-2.8,3-5.9,5.2-9.4,6.8
				s-7.2,2.4-11,2.4c-3.6,0-7.1-0.7-10.2-2.1c-3.2-1.4-6-3.3-8.4-5.6c-2.4-2.4-4.3-5.1-5.6-8.3c-1.4-3.2-2.1-6.6-2.1-10.2
				c0-3.6,0.7-7,2.1-10.2s3.3-6,5.6-8.3c2.4-2.4,5.2-4.2,8.4-5.6c3.2-1.4,6.6-2.1,10.2-2.1c3,0,5.9,0.5,8.7,1.5s5.3,2.4,7.5,4.2
				c2.3,1.8,4.2,3.9,5.8,6.3c1.6,2.4,2.8,5,3.5,7.7c0.1,0.5,0.2,0.9,0.2,1.3C173.6,200,173.6,200.4,173.6,200.7z M160.2,197.7
				c-0.3-0.8-0.8-1.6-1.5-2.5s-1.5-1.7-2.5-2.4s-2.2-1.3-3.5-1.8s-2.8-0.7-4.5-0.7c-1.8,0-3.5,0.3-5,0.9c-1.5,0.6-2.7,1.3-3.8,2.1
				c-1.1,0.9-2,1.8-2.7,2.8s-1.2,1.9-1.4,2.8c0.2-0.2,0.5-0.4,0.9-0.7c0.4-0.3,1-0.5,1.8-0.5L160.2,197.7L160.2,197.7z M156.3,171.1
				c-1.4,1.8-3.7,2.7-6.9,2.7H143c1.3-2.3,2.4-4.3,3.3-5.9c0.9-1.6,1.7-2.9,2.3-4c0.6-1,1.1-1.8,1.4-2.3c0.3-0.5,0.5-0.8,0.6-1
				c1.4-1.8,3.7-2.7,6.9-2.7h8.9L156.3,171.1z"/>
			<path class="st3" d="M198.1,163.2v67.1h-12.8v-57.4l8.5-3.7C193.8,169.1,198.1,167.3,198.1,163.2z"/>
			<path class="st3" d="M209.5,204.8c0-3.6,0.7-7,2.1-10.2c1.4-3.2,3.3-6,5.6-8.4c2.4-2.4,5.2-4.3,8.4-5.6c3.2-1.4,6.6-2.1,10.2-2.1
				c3.6,0,7,0.7,10.2,2.1c3.2,1.4,6,3.3,8.4,5.6c2.4,2.4,4.3,5.2,5.6,8.4c1.4,3.2,2.1,6.6,2.1,10.2c0,3.6-0.7,7-2.1,10.2
				c-1.4,3.2-3.3,6-5.6,8.4c-2.4,2.4-5.2,4.3-8.4,5.6c-3.2,1.4-6.6,2.1-10.2,2.1c-3.6,0-7-0.7-10.2-2.1c-3.2-1.4-6-3.3-8.4-5.6
				c-2.4-2.4-4.3-5.2-5.6-8.4S209.5,208.4,209.5,204.8z M222.2,204.8c0,1.8,0.4,3.6,1.1,5.3c0.7,1.7,1.7,3.1,2.9,4.3
				s2.7,2.2,4.3,2.9c1.7,0.7,3.4,1.1,5.3,1.1c1.8,0,3.6-0.4,5.3-1.1c1.7-0.7,3.1-1.7,4.3-2.9s2.2-2.7,2.9-4.3
				c0.7-1.7,1.1-3.4,1.1-5.3c0-1.9-0.4-3.6-1.1-5.3c-0.7-1.6-1.7-3.1-2.9-4.3s-2.7-2.2-4.3-2.9c-1.7-0.7-3.4-1.1-5.3-1.1
				c-1.8,0-3.6,0.4-5.3,1.1c-1.7,0.7-3.1,1.7-4.3,2.9s-2.2,2.7-2.9,4.3C222.5,201.2,222.2,202.9,222.2,204.8z"/>
		</g>
		<g>
			
				<linearGradient id="SVGID_2_" gradientUnits="userSpaceOnUse" x1="62.8381" y1="160.5935" x2="294.1713" y2="160.5935" gradientTransform="matrix(1 0 0 -1 0 311.11)">
				<stop  offset="0" style="stop-color:#E2001A"/>
				<stop  offset="1" style="stop-color:#B40818"/>
			</linearGradient>
			<path class="st4" d="M268.8,89.7c-39.5-49.2-111.5-57-160.6-17.5c-31.6,25.3-48.8,64-44.8,101.4l6.6-0.1c0.8,0,1.7,0.1,2.5,0.3
				c0.5,0.1,0.9,0.3,1.4,0.5c0.2-30.3,13.5-60.3,39-80.7c45-36.1,110.7-29,146.9,16c35.1,43.7,29.8,107.7-11.8,144.4
				c1.3-1,2.6-1.9,3.9-3C300.9,211.4,308.3,138.8,268.8,89.7z"/>
		</g>
	</g>
</g>
</svg>
