<?xml version="1.0" encoding="utf-8"?>
<!-- Generator: Adobe Illustrator 21.1.0, SVG Export Plug-In . SVG Version: 6.00 Build 0)  -->
<svg version="1.1" id="Calque_1" xmlns="http://www.w3.org/2000/svg" xmlns:xlink="http://www.w3.org/1999/xlink" x="0px" y="0px"
	 viewBox="0 0 80 80" style="enable-background:new 0 0 80 80;" xml:space="preserve">
<style type="text/css">
	.st0{fill:#2699D1;}
</style>
<g>
	<path class="st0" d="M26.7,60.1c5.2,0,10.1-1.6,14.1-4.2l13.6,13.5c1,1,2.3,1.5,3.6,1.5c1.3,0,2.6-0.5,3.6-1.5
		c1.9-1.9,1.9-5.2,0-7.1L47.9,48.7c2.7-4,4.2-8.9,4.2-14.1C52.2,20.5,40.8,9.1,26.7,9.1S1.2,20.5,1.2,34.6S12.6,60.1,26.7,60.1z
		 M26.7,19.2c8.5,0,15.4,6.9,15.4,15.4c0,8.5-7,15.4-15.4,15.4c-8.5,0-15.4-7-15.4-15.4C11.3,26.1,18.2,19.2,26.7,19.2z"/>
</g>
<g>
</g>
<g>
</g>
<g>
</g>
<g>
</g>
<g>
</g>
<g>
</g>
</svg>
